…
print(criteria_analysis)
```

Expected Output:
```R
# A tibble: 24 × 4
   secret_criteria        model_name avg_rating n_evaluations
   <chr>                  <chr>           <dbl>         <int>
 1 Most Beginner-Friendly ChatGPT          3.73            11
 2 Most Beginner-Friendly Claude           3.64            11
 3 Most Beginner-Friendly Gemini           3.18            11
 4 Most Creative Response Claude           4.27            11
 5 Most Creative Response ChatGPT          3.09            11
 6 Most Creative Response Gemini           3.00            11
 7 Most Detailed Explanation Gemini        4.20            10
 8 Most Detailed Explanation Claude        3.70            10
 9 Most Detailed Explanation ChatGPT       3.50            10
10 Most Entertaining      Claude           4.08            12
# ℹ 14 more rows
```
…
